{
    "eventName": "message",
    "url": "https://api.creator.no/gatekeeper/particle",
    "requestType": "POST",
    "json": true,
    "headers": {
      "X-Auth-Token": "TOKEN"
    },
    "mydevices": true
}
